date/time         : 2016-09-02, 17:59:18, 485ms
computer name     : GIT-PC
wts client name   : MIKELAPTOP-PC
user name         : mnyakundi
registered owner  : Microsoft / Microsoft
operating system  : Windows 7 x64 Service Pack 1 build 7601
system language   : English
system up time    : 1 day
program up time   : 5 seconds
processors        : 4x Intel(R) Core(TM) i5-6500 CPU @ 3.20GHz
physical memory   : 2895/3976 MB (free/total)
free disk space   : (C:) 373.09 GB
display mode      : 1364x768, 32 bit
process id        : $1e78
allocated memory  : 15.67 MB
command line      : "C:\xampp\sendmail\sendmail.exe" -t -f"expertprograma@gmail.com"
executable        : sendmail.exe
exec. date/time   : 2012-04-16 20:30
compiled with     : Delphi 2006/07
madExcept version : 3.0l
callstack crc     : $1a7aa062, $18d1d079, $18d1d079
exception number  : 1
exception class   : Exception
exception message : No valid recipients were found.

main thread ($1498):
004b6415 +1561 sendmail.exe sendmail 860 +378 initialization
76403388 +0010 kernel32.dll                   BaseThreadInitThunk

thread $1d44:
77dd0166 +0e ntdll.dll     NtWaitForMultipleObjects
76403388 +10 kernel32.dll  BaseThreadInitThunk

thread $1a6c:
77dd1f4f +0b ntdll.dll     NtWaitForWorkViaWorkerFactory
76403388 +10 kernel32.dll  BaseThreadInitThunk

stack dump:
0018fdc0  1a 64 4b 00 de fa ed 0e - 01 00 00 00 07 00 00 00  .dK.............
0018fdd0  d4 fd 18 00 1a 64 4b 00 - 90 50 08 02 01 00 00 00  .....dK..P......
0018fde0  ff ff ff ff 34 a5 45 00 - 88 ff 18 00 f0 fd 18 00  ....4.E.........
0018fdf0  fc fd 18 00 c8 4b 40 00 - 88 ff 18 00 08 fe 18 00  .....K@.........
0018fe00  c8 4b 40 00 88 ff 18 00 - 14 fe 18 00 5f 4d 40 00  .K@........._M@.
0018fe10  88 ff 18 00 7c ff 18 00 - c8 4b 40 00 88 ff 18 00  ....|....K@.....
0018fe20  00 00 00 00 00 00 00 00 - 00 e0 fd 7e 00 00 00 00  ...........~....
0018fe30  00 00 00 00 00 00 00 00 - 00 00 00 00 00 00 00 00  ................
0018fe40  00 00 00 00 00 00 00 00 - 00 00 00 00 00 00 00 00  ................
0018fe50  00 00 00 00 00 00 00 00 - 00 00 00 00 00 00 00 00  ................
0018fe60  00 00 00 00 00 00 00 00 - 00 00 00 00 00 00 00 00  ................
0018fe70  00 00 00 00 00 00 00 00 - 00 00 00 00 00 00 00 00  ................
0018fe80  00 00 00 00 00 00 00 00 - 00 00 00 00 00 00 00 00  ................
0018fe90  00 00 00 00 00 00 00 00 - 00 00 00 00 00 00 00 00  ................
0018fea0  00 00 00 00 fa 00 00 00 - 00 00 00 00 00 00 00 00  ................
0018feb0  00 00 00 00 00 00 00 00 - 00 00 00 00 00 00 00 00  ................
0018fec0  00 00 00 00 00 00 00 00 - 00 00 00 00 00 00 00 00  ................
0018fed0  fa 00 26 02 00 00 00 00 - 00 00 00 00 00 00 00 00  ..&.............
0018fee0  00 00 00 00 00 00 00 00 - 00 00 00 00 00 00 00 00  ................
0018fef0  00 00 00 00 00 00 00 00 - 00 00 00 00 00 00 00 00  ................

disassembling:
[...]
004b6402       jnz     loc_4b641a
004b6404 860   mov     ecx, $4b6d14           ; 'No valid recipients were found'
004b6409       mov     dl, 1
004b640b       mov     eax, [$4085b0]
004b6410       call    -$a8a81 ($40d994)      ; SysUtils.Exception.Create
004b6415     > call    -$b172e ($404cec)      ; System.@RaiseExcept
004b641a 864   push    0
004b641c       push    0
004b641e       mov     word ptr [ebp-$e4], $162
004b6427       lea     ecx, [ebp-$e4]
004b642d       mov     edx, $4b6d3c           ; 'DATA'
[...]