To: test2 <test2@ccc.com>
Subject: Verify your email address
Message-ID: <8e0d2cafccd161600afbacb01cd60205@192.168.0.152>
Date: Mon, 08 Aug 2016 09:04:18 +0000
From: JubileeDigitalPortal <admin@jubileeinsure.com>
MIME-Version: 1.0
Content-Type: text/html; charset=utf-8
Content-Transfer-Encoding: quoted-printable

<!DOCTYPE html>
<html lang=3D"en-US">
    <head>
        <meta charset=3D"utf-8">
    </head>
    <body>
        <h2>Verify Your Email Address</h2>

        <div>
            Thanks for creating an account with Jubilee Insurance digital p=
ortal.
            Please follow the link below to verify your email address and a=
ctivate your account
            192.168.9.54:5555/activate-account/OAywen2deBwx8wwscak3EgQtx7gH=
e5.<br/>

        </div>

    </body>
</html>
