To: geg <lawier@gmail.com>
Subject: Verify your email address
Message-ID: <200176c492186e14caf3da595d918d19@192.168.0.152>
Date: Mon, 08 Aug 2016 08:05:30 +0000
From: JubileeDigitalPortal <admin@jubileeinsure.com>
MIME-Version: 1.0
Content-Type: text/html; charset=utf-8
Content-Transfer-Encoding: quoted-printable

<!DOCTYPE html>
<html lang=3D"en-US">
    <head>
        <meta charset=3D"utf-8">
    </head>
    <body>
        <h2>Verify Your Email Address</h2>

        <div>
            Thanks for creating an account with Jubilee Insurance digital p=
ortal.
            Please follow the link below to verify your email address and a=
ctivate your account
            192.168.9.54:5555/activate-account/0kf4M8UkgJrknEohZBBKps865dVi=
Im.<br/>

        </div>

    </body>
</html>
